Financial modeling with R
…
Figure 1.5: Apple stock trading volume a further analysis.

Up to know, we have been using default options as we simply ask for stock prices of Apple without any other kind of instruction. As a result, we get data starting from 2010: tq_get("AAPL"). However, we can change default options if needed to get data back to 1990. I will take some online available examples developed by the author of tidyquant Matt Dancho.

Download Apple stock prices.

Code

aapl_prices  <- tq_get("AAPL", get = "stock.prices", 
                       from = " 1990-01-01")
# Show results.
aapl_prices

# A tibble: 8,565 × 8
   symbol date        open  high   low close    volume adjusted
   <chr>  <date>     <dbl> <dbl> <dbl> <dbl>     <dbl>    <dbl>
 1 AAPL   1990-01-02 0.315 0.335 0.312 0.333 183198400    0.263
 2 AAPL   1990-01-03 0.339 0.339 0.335 0.335 207995200    0.265
 3 AAPL   1990-01-04 0.342 0.346 0.333 0.336 221513600    0.266
 4 AAPL   1990-01-05 0.337 0.342 0.330 0.337 123312000    0.267
 5 AAPL   1990-01-08 0.335 0.339 0.330 0.339 101572800    0.269
 6 AAPL   1990-01-09 0.339 0.339 0.330 0.336  86139200    0.266
 7 AAPL   1990-01-10 0.336 0.336 0.319 0.321 199718400    0.255
 8 AAPL   1990-01-11 0.324 0.324 0.308 0.308 211052800    0.244
 9 AAPL   1990-01-12 0.306 0.310 0.301 0.308 171897600    0.244
10 AAPL   1990-01-15 0.308 0.319 0.306 0.306 161739200    0.242
# ℹ 8,555 more rows

Sometimes we are interested in periodicity aggregation from daily to monthly. We cannot transform from monthly to daily, but we can always transform from daily to monthly, monthly to yearly and so on. FANG is a dataset containing the daily historical stock prices for the FANG tech stocks, FB, AMZN, NFLX, and GOOG, spanning from the beginning of 2013 through the end of 2016.

Let’s aggregate the pre-loaded data from daily to monthly frequency.

Code

data("FANG")
FANG |>
    group_by(symbol) |>
    tq_transmute(select = adjusted, mutate_fun = to.monthly, 
                 indexAt = "lastof")

# A tibble: 192 × 3
# Groups:   symbol [4]
   symbol date       adjusted
   <chr>  <date>        <dbl>
 1 FB     2013-01-31     31.0
 2 FB     2013-02-28     27.2
 3 FB     2013-03-31     25.6
 4 FB     2013-04-30     27.8
 5 FB     2013-05-31     24.4
 6 FB     2013-06-30     24.9
 7 FB     2013-07-31     36.8
 8 FB     2013-08-31     41.3
 9 FB     2013-09-30     50.2
10 FB     2013-10-31     50.2
# ℹ 182 more rows

The tidyquant package can also access other kinds of data from diverse sources like the Federal Reserve Economic Data (FRED). Federal Reserve Economic Data is a database maintained by the Research division of the Federal Reserve Bank of St. Louis that has more than 819,000 US and international time series from 110 sources. Consider the WTI Crude Oil Prices.

Download oil prices from FRED.

Code

# See https://fred.stlouisfed.org/series/DCOILWTICO
wti_price_usd <- tq_get("DCOILWTICO", get = "economic.data")
# Show results.
wti_price_usd

# A tibble: 2,605 × 3
   symbol     date       price
   <chr>      <date>     <dbl>
 1 DCOILWTICO 2014-01-01  NA  
 2 DCOILWTICO 2014-01-02  95.1
 3 DCOILWTICO 2014-01-03  93.7
 4 DCOILWTICO 2014-01-06  93.1
 5 DCOILWTICO 2014-01-07  93.3
 6 DCOILWTICO 2014-01-08  91.9
 7 DCOILWTICO 2014-01-09  91.4
 8 DCOILWTICO 2014-01-10  92.4
 9 DCOILWTICO 2014-01-13  91.4
10 DCOILWTICO 2014-01-14  92.2
# ℹ 2,595 more rows
…
Figure 1.14: Facebook 60-day moving average chart.

This suggests that the stock price will decrease in the near future. Let’s see if the moving average signal is correct.

Code

FANG |>
  filter(symbol == "FB") |>
  filter(date >= "2014-01-01" & date <= "2014-02-01")

# A tibble: 21 × 8
   symbol date        open  high   low close   volume adjusted
   <chr>  <date>     <dbl> <dbl> <dbl> <dbl>    <dbl>    <dbl>
 1 FB     2014-01-02  54.8  55.2  54.2  54.7 43195500     54.7
 2 FB     2014-01-03  55.0  55.7  54.5  54.6 38246200     54.6
 3 FB     2014-01-06  54.4  57.3  54.0  57.2 68852600     57.2
 4 FB     2014-01-07  57.7  58.5  57.2  57.9 77207400     57.9
 5 FB     2014-01-08  57.6  58.4  57.2  58.2 56682400     58.2
 6 FB     2014-01-09  58.7  59.0  56.7  57.2 92253300     57.2
 7 FB     2014-01-10  57.1  58.3  57.1  57.9 42449500     57.9
 8 FB     2014-01-13  57.9  58.2  55.4  55.9 63010900     55.9
 9 FB     2014-01-14  56.5  57.8  56.1  57.7 37503600     57.7
10 FB     2014-01-15  58.0  58.6  57.3  57.6 33663400     57.6
# ℹ 11 more rows
…
Code

# Download individual asset returns.
R_stocks <- c("NEM", "AMCR", "CLX", "PEAK", "KR", "TXN", "F", "TXT", 
              "KLAC", "TEF") |>
  tq_get(get  = "stock.prices", from = "2010-01-01", 
         to   = "2015-12-31") |>
  group_by(symbol) |> 
  tq_transmute(select     = adjusted, 
               mutate_fun = periodReturn, 
               period     = "monthly", 
               col_rename = "R_stocks")
R_stocks

# A tibble: 692 × 3
# Groups:   symbol [10]
   symbol date       R_stocks
   <chr>  <date>        <dbl>
 1 NEM    2010-01-29  -0.115 
 2 NEM    2010-02-26   0.150 
 3 NEM    2010-03-31   0.0355
 4 NEM    2010-04-30   0.101 
 5 NEM    2010-05-28  -0.0403
 6 NEM    2010-06-30   0.149 
 7 NEM    2010-07-30  -0.0946
 8 NEM    2010-08-31   0.0970
 9 NEM    2010-09-30   0.0268
10 NEM    2010-10-29  -0.0310
# ℹ 682 more rows
Then, we download the S&P500 monthly returns, the symbol is ^GSPC.

Code

# Download the market index return.
R_market <- "^GSPC" |>
  tq_get(get  = "stock.prices", from = "2010-01-01",
         to   = "2015-12-31") |>
    tq_transmute(select     = adjusted, 
                 mutate_fun = periodReturn, 
                 period     = "monthly", 
                 col_rename = "R_market")
R_market

# A tibble: 72 × 2
   date       R_market
   <date>        <dbl>
 1 2010-01-29  -0.0522
 2 2010-02-26   0.0285
 3 2010-03-31   0.0588
 4 2010-04-30   0.0148
 5 2010-05-28  -0.0820
 6 2010-06-30  -0.0539
 7 2010-07-30   0.0688
 8 2010-08-31  -0.0474
 9 2010-09-30   0.0876
10 2010-10-29   0.0369
# ℹ 62 more rows

Now, we join R_stocks and R_market in the same variable or R object. This is convenient in the estimation procedure.

Code

# Prepare the database.
R_stocks_market <- left_join(R_stocks, R_market, by = c("date" = "date"))
R_stocks_market

# A tibble: 692 × 4
# Groups:   symbol [10]
   symbol date       R_stocks R_market
   <chr>  <date>        <dbl>    <dbl>
 1 NEM    2010-01-29  -0.115   -0.0522
 2 NEM    2010-02-26   0.150    0.0285
 3 NEM    2010-03-31   0.0355   0.0588
 4 NEM    2010-04-30   0.101    0.0148
 5 NEM    2010-05-28  -0.0403  -0.0820
 6 NEM    2010-06-30   0.149   -0.0539
 7 NEM    2010-07-30  -0.0946   0.0688
 8 NEM    2010-08-31   0.0970  -0.0474
 9 NEM    2010-09-30   0.0268   0.0876
10 NEM    2010-10-29  -0.0310   0.0369
# ℹ 682 more rows
…
Let’s see how we should distribute the 100% of available money to invest in four stocks using the PortfolioAnalytics R package. We need data to start. For convenience, we use the monthly returns of the FANG database.

Code

FANG_monthly_returns <- FANG |>
    group_by(symbol) |>
    tq_transmute(select     = adjusted,
                 mutate_fun = periodReturn,
                 period     = "monthly",
                 type       = "arithmetic")

FANG_monthly_returns

# A tibble: 192 × 3
# Groups:   symbol [4]
   symbol date       monthly.returns
   <chr>  <date>               <dbl>
 1 FB     2013-01-31        0.106   
 2 FB     2013-02-28       -0.120   
 3 FB     2013-03-28       -0.0613  
 4 FB     2013-04-30        0.0856  
 5 FB     2013-05-31       -0.123   
 6 FB     2013-06-28        0.0218  
 7 FB     2013-07-31        0.479   
 8 FB     2013-08-30        0.122   
 9 FB     2013-09-30        0.217   
10 FB     2013-10-31       -0.000398
# ℹ 182 more rows
…
Code

# Download individual asset returns.
R_stocks <- c("NEM", "AMCR", "CLX", "PEAK", "KR", "TXN", "F", "TXT", 
              "KLAC", "TEF") |>
  tq_get(get  = "stock.prices", from = "2010-01-01", 
         to   = "2015-12-31") |>
  group_by(symbol) |> 
  tq_transmute(select     = adjusted, 
               mutate_fun = periodReturn, 
               period     = "monthly", 
               col_rename = "R_stocks")
R_stocks

# A tibble: 692 × 3
# Groups:   symbol [10]
   symbol date       R_stocks
   <chr>  <date>        <dbl>
 1 NEM    2010-01-29  -0.115 
 2 NEM    2010-02-26   0.150 
 3 NEM    2010-03-31   0.0355
 4 NEM    2010-04-30   0.101 
 5 NEM    2010-05-28  -0.0403
 6 NEM    2010-06-30   0.149 
 7 NEM    2010-07-30  -0.0946
 8 NEM    2010-08-31   0.0970
 9 NEM    2010-09-30   0.0268
10 NEM    2010-10-29  -0.0310
# ℹ 682 more rows
…
